{
  "project_info": {
    "project_number": "272667301589",
    "firebase_url": "https://delijar-default-rtdb.firebaseio.com",
    "project_id": "delijar",
    "storage_bucket": "delijar.appspot.com"
  },
  "client": [
    {
      "client_info": {
        "mobilesdk_app_id": "1:272667301589:android:1eec9b65d7a5aadbbef45c",
        "android_client_info": {
          "package_name": "com.example.delijar"
        }
      },
      "oauth_client": [
        {
          "client_id": "272667301589-f7bo9prphikcinua3heh92g7jeos6cl9.apps.googleusercontent.com",
          "client_type": 3
        }
      ],
      "api_key": [
        {
          "current_key": "AIzaSyC7U-2tZrw88sOwNg2w-kBfsXWJwBa35Jk"
        }
      ],
      "services": {
        "appinvite_service": {
          "other_platform_oauth_client": [
            {
              "client_id": "272667301589-f7bo9prphikcinua3heh92g7jeos6cl9.apps.googleusercontent.com",
              "client_type": 3
            }
          ]
        }
      }
    }
  ],
  "configuration_version": "1"
}